<svg xmlns="http://www.w3.org/2000/svg" width="1471" height="903" viewBox="-735.5 -451.5 1471 903">
          <defs>
            <pattern id="bg" width="35.8780487804878" height="35.8780487804878" patternUnits="userSpaceOnUse" patternTransform="rotate(22.5)">
              <path d="
  M 5.979674796747967 0
  l 3.9864498644986446 3.9864498644986446
  l 15.945799457994578 0
  l 3.9864498644986446 -3.9864498644986446
  l 5.979674796747967 5.979674796747967
  l -3.9864498644986446 3.9864498644986446
  l 0 15.945799457994578
  l 3.9864498644986446 3.9864498644986446
  l -5.979674796747967 5.979674796747967
  l -3.9864498644986446 -3.9864498644986446
  l -15.945799457994578 0
  l -3.9864498644986446 3.9864498644986446
  l -5.979674796747967 -5.979674796747967
  l 3.9864498644986446 -3.9864498644986446
  l 0 -15.945799457994578
  l -3.9864498644986446 -3.9864498644986446
  z
  " stroke="#e0dce0" stroke-width="1" fill="none"/>
            </pattern>
            <pattern id="bg-large" width="358.780487804878" height="358.780487804878" patternUnits="userSpaceOnUse" patternTransform="rotate(-22.5)">
              <path d="
  M 59.79674796747967 0
  l 39.86449864498645 39.86449864498645
  l 159.4579945799458 0
  l 39.86449864498645 -39.86449864498645
  l 59.79674796747967 59.79674796747967
  l -39.86449864498645 39.86449864498645
  l 0 159.4579945799458
  l 39.86449864498645 39.86449864498645
  l -59.79674796747967 59.79674796747967
  l -39.86449864498645 -39.86449864498645
  l -159.4579945799458 0
  l -39.86449864498645 39.86449864498645
  l -59.79674796747967 -59.79674796747967
  l 39.86449864498645 -39.86449864498645
  l 0 -159.4579945799458
  l -39.86449864498645 -39.86449864498645
  z
  " stroke="#c1bcc2" stroke-width="2" fill="none"/>
            </pattern>
            <radialGradient id="accent-bg">
              <stop offset="25%" stop-color="#fffcff"/>
              <stop offset="100%" stop-color="#fffcff" stop-opacity="0"/>
            </radialGradient>
            <linearGradient id="fill-0" x1="0" y1="0" x2="1" y2="1"><stop offset="25%" stop-color="#f03e4d" stop-opacity="0"/><stop offset="90%" stop-color="#f03e4d"/></linearGradient>
<linearGradient id="fill-1" x1="0" y1="0" x2="1" y2="1"><stop offset="25%" stop-color="#f37735" stop-opacity="0"/><stop offset="90%" stop-color="#f37735"/></linearGradient>
<linearGradient id="fill-2" x1="0" y1="0" x2="1" y2="1"><stop offset="25%" stop-color="#eeba21" stop-opacity="0"/><stop offset="90%" stop-color="#eeba21"/></linearGradient>
<linearGradient id="fill-3" x1="0" y1="0" x2="1" y2="1"><stop offset="25%" stop-color="#97bd2d" stop-opacity="0"/><stop offset="90%" stop-color="#97bd2d"/></linearGradient>
<linearGradient id="fill-4" x1="0" y1="0" x2="1" y2="1"><stop offset="25%" stop-color="#1fc598" stop-opacity="0"/><stop offset="90%" stop-color="#1fc598"/></linearGradient>
<linearGradient id="fill-5" x1="0" y1="0" x2="1" y2="1"><stop offset="25%" stop-color="#53a6e1" stop-opacity="0"/><stop offset="90%" stop-color="#53a6e1"/></linearGradient>
<linearGradient id="fill-6" x1="0" y1="0" x2="1" y2="1"><stop offset="25%" stop-color="#bf65f0" stop-opacity="0"/><stop offset="90%" stop-color="#bf65f0"/></linearGradient>
<linearGradient id="fill-7" x1="0" y1="0" x2="1" y2="1"><stop offset="25%" stop-color="#ee4eb8" stop-opacity="0"/><stop offset="90%" stop-color="#ee4eb8"/></linearGradient>
          </defs>
          <rect x="-735.5" y="-451.5" width="1471" height="903" fill="#fffcff" />
          <rect x="-735.5" y="-451.5" width="1471" height="903" fill="url(#bg)"/>
          <rect x="-735.5" y="-451.5" width="1471" height="903" fill="url(#bg-large)"/>
          <circle r="1200" fill="url(#accent-bg)"/>
          <path d="M 0 -300 L 212.13 -212.13 L 212.13 212.13 Z" stroke="#f03e4d" stroke-width="0" fill="url(#fill-0)" transform="rotate(0)"/>
<path d="M 0 -300 L 212.13 -212.13 L 212.13 212.13 Z" stroke="#f37735" stroke-width="0" fill="url(#fill-1)" transform="rotate(-45)"/>
<path d="M 0 -300 L 212.13 -212.13 L 212.13 212.13 Z" stroke="#eeba21" stroke-width="0" fill="url(#fill-2)" transform="rotate(-90)"/>
<path d="M 0 -300 L 212.13 -212.13 L 212.13 212.13 Z" stroke="#97bd2d" stroke-width="0" fill="url(#fill-3)" transform="rotate(-135)"/>
<path d="M 0 -300 L 212.13 -212.13 L 212.13 212.13 Z" stroke="#1fc598" stroke-width="0" fill="url(#fill-4)" transform="rotate(-180)"/>
<path d="M 0 -300 L 212.13 -212.13 L 212.13 212.13 Z" stroke="#53a6e1" stroke-width="0" fill="url(#fill-5)" transform="rotate(-225)"/>
<path d="M 0 -300 L 212.13 -212.13 L 212.13 212.13 Z" stroke="#bf65f0" stroke-width="0" fill="url(#fill-6)" transform="rotate(-270)"/>
<path d="M 0 -300 L 212.13 -212.13 L 212.13 212.13 Z" stroke="#ee4eb8" stroke-width="0" fill="url(#fill-7)" transform="rotate(-315)"/>
        </svg>