{
  "name": "Themer Dark",
  "background": "#5a5475",
  "foreground": "#e7e7eb",
  "cursorColor": "#ffb8d1",
  "selectionBackground": "#ffb8d1",
  "black": "#89859c",
  "brightBlack": "#a19db0",
  "red": "#ff857f",
  "brightRed": "#FF9D99",
  "green": "#fff352",
  "brightGreen": "#FFF575",
  "yellow": "#fff352",
  "brightYellow": "#FFF575",
  "blue": "#ffb8d1",
  "brightBlue": "#FFC6DA",
  "purple": "#ffb8d1",
  "brightPurple": "#FFC6DA",
  "cyan": "#c2ffdf",
  "brightCyan": "#CEFFE5",
  "white": "#e7e7eb",
  "brightWhite": "#ffffff"
}